[api-updater (non-obsolete-error-filter)] 4/28/2023 5:23:34 PM : Starting F:/Unity 2020.3.38f1/Editor/Data/Tools/ScriptUpdater/APIUpdater.NonObsoleteApiUpdaterDetector.exe
[api-updater (non-obsolete-error-filter)] 
----------------------------------
jit/startup time      : 1404.4801ms
moved types parse time: 79ms
candidates parse time : 1ms
C# parse time         : 1291ms
candidates check time : 52ms
console write time    : 0ms

